{
    "nodes": [
        {
            "capabilities": "node:controller-0,boot_option:local", 
            "pm_type": "pxe_ipmitool", 
            "pm_user": "username", 
            "pm_password": "password", 
            "pm_addr": "x.x.x.1"
        }, 
        {
            "capabilities": "node:osd-compute-0,boot_option:local", 
            "pm_type": "pxe_ipmitool", 
            "pm_user": "username", 
            "pm_password": "password", 
            "pm_addr": "x.x.x.3"
        }, 
        {
            "capabilities": "node:compute-0,boot_option:local", 
            "pm_type": "pxe_ipmitool", 
            "pm_user": "username", 
            "pm_password": "password", 
            "pm_addr": "x.x.x.4"
        }, 
        {
            "capabilities": "node:compute-1,boot_option:local", 
            "pm_type": "pxe_ipmitool", 
            "pm_user": "username", 
            "pm_password": "password", 
            "pm_addr": "x.x.x.5"
        }, 
        {
            "capabilities": "node:compute-2,boot_option:local", 
            "pm_type": "pxe_ipmitool", 
            "pm_user": "username", 
            "pm_password": "password", 
            "pm_addr": "x.x.x.6"
        }, 
        {
            "capabilities": "node:compute-3,boot_option:local", 
            "pm_type": "pxe_ipmitool", 
            "pm_user": "username", 
            "pm_password": "password", 
            "pm_addr": "x.x.x.7"
        }, 
        {
            "capabilities": "node:compute-4,boot_option:local", 
            "pm_type": "pxe_ipmitool", 
            "pm_user": "username", 
            "pm_password": "password", 
            "pm_addr": "x.x.x.8"
        }, 
        {
            "capabilities": "node:compute-5,boot_option:local", 
            "pm_type": "pxe_ipmitool", 
            "pm_user": "username", 
            "pm_password": "password", 
            "pm_addr": "x.x.x.9"
        }, 
        {
            "capabilities": "node:compute-6,boot_option:local", 
            "pm_type": "pxe_ipmitool", 
            "pm_user": "username", 
            "pm_password": "password", 
            "pm_addr": "x.x.x.10"
        }, 
        {
            "capabilities": "node:compute-7,boot_option:local", 
            "pm_type": "pxe_ipmitool", 
            "pm_user": "username", 
            "pm_password": "password", 
            "pm_addr": "x.x.x.11"
        }, 
        {
            "capabilities": "node:osd-compute-1,boot_option:local", 
            "pm_type": "pxe_ipmitool", 
            "pm_user": "username", 
            "pm_password": "password", 
            "pm_addr": "x.x.x.12"
        }, 
        {
            "capabilities": "node:osd-compute-2,boot_option:local", 
            "pm_type": "pxe_ipmitool", 
            "pm_user": "username", 
            "pm_password": "password", 
            "pm_addr": "x.x.x.13"
        }, 
        {
            "capabilities": "node:controller-1,boot_option:local", 
            "pm_type": "pxe_ipmitool", 
            "pm_user": "username", 
            "pm_password": "password", 
            "pm_addr": "x.x.x.14"
        }, 
        {
            "capabilities": "node:controller-2,boot_option:local", 
            "pm_type": "pxe_ipmitool", 
            "pm_user": "username", 
            "pm_password": "password", 
            "pm_addr": "x.x.x.15"
        }, 
        {
            "capabilities": "node:compute-8,boot_option:local", 
            "pm_type": "pxe_ipmitool", 
            "pm_user": "username", 
            "pm_password": "password", 
            "pm_addr": "x.x.x.16"
        }, 
        {
            "capabilities": "node:compute-9,boot_option:local", 
            "pm_type": "pxe_ipmitool", 
            "pm_user": "username", 
            "pm_password": "password", 
            "pm_addr": "x.x.x.17"
        }, 
        {
            "capabilities": "node:compute-10,boot_option:local", 
            "pm_type": "pxe_ipmitool", 
            "pm_user": "username", 
            "pm_password": "password", 
            "pm_addr": "x.x.x.18"
        }, 
        {
            "capabilities": "node:compute-11,boot_option:local", 
            "pm_type": "pxe_ipmitool", 
            "pm_user": "username", 
            "pm_password": "password", 
            "pm_addr": "x.x.x.19"
        }, 
        {
            "capabilities": "node:compute-12,boot_option:local", 
            "pm_type": "pxe_ipmitool", 
            "pm_user": "username", 
            "pm_password": "password", 
            "pm_addr": "x.x.x.20"
        }, 
        {
            "capabilities": "node:compute-13,boot_option:local", 
            "pm_type": "pxe_ipmitool", 
            "pm_user": "username", 
            "pm_password": "password", 
            "pm_addr": "x.x.x.21"
        }, 
        {
            "capabilities": "node:compute-14,boot_option:local", 
            "pm_type": "pxe_ipmitool", 
            "pm_user": "username", 
            "pm_password": "password", 
            "pm_addr": "x.x.x.22"
        }, 
        {
            "capabilities": "node:compute-15,boot_option:local", 
            "pm_type": "pxe_ipmitool", 
            "pm_user": "username", 
            "pm_password": "password", 
            "pm_addr": "x.x.x.23"
        }, 
        {
            "capabilities": "node:compute-16,boot_option:local", 
            "pm_type": "pxe_ipmitool", 
            "pm_user": "username", 
            "pm_password": "password", 
            "pm_addr": "x.x.x.24"
        }, 
        {
            "capabilities": "node:compute-17,boot_option:local", 
            "pm_type": "pxe_ipmitool", 
            "pm_user": "username", 
            "pm_password": "password", 
            "pm_addr": "x.x.x.25"
        }
    ]
}
